[
    {
        "quote": "Sesso clodio e rock n roll",
        "person": "calvin42"
    },
    {
        "quote": "Drink Coca-Clodio",
        "person": "calvin42"
    },
    {
        "quote": "hai presente un paraboloide?",
        "person": "pittix"
    },
    {
        "quote": "pap\u00e0 sar\u00e0 bello solo se permetter\u00e0 a @pittix di giocare coi dadi",
        "person": "pittix"
    }
]